<svg width="181" height="80" viewBox="0 0 181 80" fill="none" xmlns="http://www.w3.org/2000/svg">
<path d="M1.12846 62.5139V28.2733H23.6117V34.242H8.30785V42.4009H22.1195V48.3696H8.30785V62.5139H1.12846Z" fill="white"/>
<path d="M37.9456 63.0154C35.3701 63.0154 33.1428 62.4637 31.2637 61.3603C29.3956 60.2457 27.9531 58.6964 26.9361 56.7124C25.9192 54.7172 25.4107 52.4044 25.4107 49.774C25.4107 47.1212 25.9192 44.8029 26.9361 42.8189C27.9531 40.8237 29.3956 39.2744 31.2637 38.171C33.1428 37.0564 35.3701 36.4991 37.9456 36.4991C40.5212 36.4991 42.743 37.0564 44.611 38.171C46.4902 39.2744 47.9382 40.8237 48.9552 42.8189C49.9721 44.8029 50.4806 47.1212 50.4806 49.774C50.4806 52.4044 49.9721 54.7172 48.9552 56.7124C47.9382 58.6964 46.4902 60.2457 44.611 61.3603C42.743 62.4637 40.5212 63.0154 37.9456 63.0154ZM37.9788 57.4982C39.1505 57.4982 40.1288 57.1638 40.9136 56.495C41.6984 55.8151 42.2898 54.89 42.6877 53.7197C43.0967 52.5493 43.3012 51.2174 43.3012 49.7238C43.3012 48.2303 43.0967 46.8983 42.6877 45.728C42.2898 44.5577 41.6984 43.6325 40.9136 42.9526C40.1288 42.2727 39.1505 41.9328 37.9788 41.9328C36.7961 41.9328 35.8012 42.2727 34.9943 42.9526C34.1984 43.6325 33.596 44.5577 33.187 45.728C32.7891 46.8983 32.5901 48.2303 32.5901 49.7238C32.5901 51.2174 32.7891 52.5493 33.187 53.7197C33.596 54.89 34.1984 55.8151 34.9943 56.495C35.8012 57.1638 36.7961 57.4982 37.9788 57.4982Z" fill="white"/>
<path d="M66.5803 63.0154C64.0048 63.0154 61.7775 62.4637 59.8983 61.3603C58.0303 60.2457 56.5877 58.6964 55.5708 56.7124C54.5539 54.7172 54.0454 52.4044 54.0454 49.774C54.0454 47.1212 54.5539 44.8029 55.5708 42.8189C56.5877 40.8237 58.0303 39.2744 59.8983 38.171C61.7775 37.0564 64.0048 36.4991 66.5803 36.4991C69.1558 36.4991 71.3776 37.0564 73.2457 38.171C75.1248 39.2744 76.5729 40.8237 77.5898 42.8189C78.6068 44.8029 79.1152 47.1212 79.1152 49.774C79.1152 52.4044 78.6068 54.7172 77.5898 56.7124C76.5729 58.6964 75.1248 60.2457 73.2457 61.3603C71.3776 62.4637 69.1558 63.0154 66.5803 63.0154ZM66.6135 57.4982C67.7852 57.4982 68.7634 57.1638 69.5482 56.495C70.3331 55.8151 70.9244 54.89 71.3224 53.7197C71.7313 52.5493 71.9358 51.2174 71.9358 49.7238C71.9358 48.2303 71.7313 46.8983 71.3224 45.728C70.9244 44.5577 70.3331 43.6325 69.5482 42.9526C68.7634 42.2727 67.7852 41.9328 66.6135 41.9328C65.4307 41.9328 64.4359 42.2727 63.629 42.9526C62.8331 43.6325 62.2307 44.5577 61.8217 45.728C61.4238 46.8983 61.2248 48.2303 61.2248 49.7238C61.2248 51.2174 61.4238 52.5493 61.8217 53.7197C62.2307 54.89 62.8331 55.8151 63.629 56.495C64.4359 57.1638 65.4307 57.4982 66.6135 57.4982Z" fill="white"/>
<path d="M97.2544 36.8335V42.1836H81.9174V36.8335H97.2544ZM85.3993 30.6809H92.4626V54.6225C92.4626 55.2801 92.5621 55.7928 92.7611 56.1607C92.96 56.5173 93.2364 56.7681 93.5901 56.913C93.9549 57.0579 94.3749 57.1304 94.8502 57.1304C95.1818 57.1304 95.5134 57.1025 95.845 57.0468C96.1767 56.9799 96.4309 56.9297 96.6077 56.8963L97.7187 62.1962C97.3649 62.3077 96.8675 62.4359 96.2264 62.5808C95.5853 62.7368 94.806 62.8315 93.8885 62.865C92.1863 62.9319 90.694 62.7034 89.4118 62.1795C88.1406 61.6556 87.1513 60.842 86.4439 59.7385C85.7364 58.6351 85.3882 57.2418 85.3993 55.5588V30.6809Z" fill="white"/>
<path d="M102.535 62.5139V28.2733H109.599V41.147H109.814C110.124 40.4559 110.571 39.7537 111.157 39.0404C111.754 38.3159 112.528 37.714 113.478 37.2347C114.44 36.7443 115.634 36.4991 117.06 36.4991C118.917 36.4991 120.63 36.9895 122.2 37.9704C123.77 38.9401 125.024 40.4058 125.964 42.3675C126.903 44.318 127.373 46.7646 127.373 49.7071C127.373 52.5716 126.914 54.9903 125.997 56.9632C125.09 58.9249 123.852 60.4129 122.283 61.4271C120.724 62.4303 118.978 62.9319 117.043 62.9319C115.673 62.9319 114.506 62.7034 113.545 62.2464C112.594 61.7894 111.815 61.2154 111.207 60.5243C110.599 59.8221 110.135 59.1143 109.814 58.401H109.499V62.5139H102.535ZM109.449 49.6737C109.449 51.2007 109.659 52.5326 110.079 53.6695C110.5 54.8064 111.107 55.6925 111.903 56.3278C112.699 56.952 113.666 57.2641 114.805 57.2641C115.955 57.2641 116.927 56.9464 117.723 56.3111C118.519 55.6647 119.121 54.773 119.53 53.6361C119.95 52.488 120.16 51.1672 120.16 49.6737C120.16 48.1912 119.956 46.8872 119.547 45.7614C119.138 44.6357 118.536 43.7551 117.74 43.1198C116.944 42.4845 115.966 42.1668 114.805 42.1668C113.655 42.1668 112.683 42.4734 111.887 43.0864C111.102 43.6994 110.5 44.5688 110.079 45.6945C109.659 46.8203 109.449 48.1467 109.449 49.6737Z" fill="white"/>
<path d="M139.348 62.9987C137.723 62.9987 136.275 62.7145 135.004 62.1461C133.733 61.5665 132.727 60.7138 131.987 59.588C131.257 58.4512 130.892 57.0356 130.892 55.3414C130.892 53.9147 131.152 52.7165 131.672 51.7468C132.191 50.7771 132.898 49.9969 133.794 49.4062C134.689 48.8154 135.706 48.3696 136.845 48.0686C137.994 47.7677 139.199 47.5559 140.459 47.4333C141.94 47.2773 143.134 47.1324 144.041 46.9986C144.947 46.8537 145.605 46.642 146.014 46.3633C146.423 46.0847 146.627 45.6723 146.627 45.1261V45.0258C146.627 43.9669 146.296 43.1477 145.632 42.5681C144.98 41.9885 144.052 41.6987 142.847 41.6987C141.576 41.6987 140.564 41.9829 139.813 42.5514C139.061 43.1087 138.564 43.8109 138.32 44.658L131.788 44.123C132.119 42.5625 132.771 41.2139 133.744 40.077C134.717 38.9289 135.971 38.0484 137.508 37.4354C139.055 36.8112 140.846 36.4991 142.88 36.4991C144.295 36.4991 145.649 36.6663 146.942 37.0007C148.247 37.335 149.402 37.8533 150.408 38.5555C151.425 39.2577 152.226 40.1606 152.812 41.264C153.398 42.3563 153.691 43.666 153.691 45.193V62.5139H146.992V58.9527H146.793C146.384 59.7552 145.837 60.463 145.152 61.076C144.466 61.6779 143.643 62.1516 142.681 62.4972C141.719 62.8315 140.608 62.9987 139.348 62.9987ZM141.371 58.0833C142.41 58.0833 143.328 57.8771 144.124 57.4647C144.919 57.0412 145.544 56.4727 145.997 55.7594C146.45 55.0461 146.677 54.238 146.677 53.3351V50.6099C146.456 50.7548 146.152 50.8886 145.765 51.0112C145.389 51.1227 144.964 51.2285 144.488 51.3289C144.013 51.418 143.538 51.5016 143.062 51.5796C142.587 51.6465 142.156 51.7078 141.769 51.7636C140.94 51.8862 140.216 52.0812 139.597 52.3487C138.978 52.6162 138.497 52.9785 138.155 53.4355C137.812 53.8813 137.641 54.4386 137.641 55.1074C137.641 56.0771 137.989 56.8183 138.685 57.331C139.393 57.8326 140.288 58.0833 141.371 58.0833Z" fill="white"/>
<path d="M166.234 28.2733V62.5139H159.17V28.2733H166.234Z" fill="white"/>
<path d="M178.955 28.2733V62.5139H171.892V28.2733H178.955Z" fill="white"/>
<path d="M7.43493 22.3568H0V1.2082H7.49638C9.60601 1.2082 11.4221 1.63158 12.9446 2.47835C14.467 3.31823 15.6379 4.52643 16.4572 6.10293C17.2833 7.67944 17.6964 9.56574 17.6964 11.7618C17.6964 13.9648 17.2833 15.858 16.4572 17.4414C15.6379 19.0248 14.4602 20.2398 12.9241 21.0866C11.3948 21.9334 9.56505 22.3568 7.43493 22.3568ZM4.43433 18.5257H7.25059C8.56143 18.5257 9.66404 18.2916 10.5584 17.8235C11.4596 17.3484 12.1355 16.6153 12.5861 15.6239C13.0436 14.6257 13.2723 13.3383 13.2723 11.7618C13.2723 10.1991 13.0436 8.92205 12.5861 7.93072C12.1355 6.93938 11.463 6.20964 10.5687 5.74151C9.67428 5.27338 8.57167 5.03931 7.26083 5.03931H4.43433V18.5257Z" fill="#CBDBDC"/>
<path d="M20.8992 22.3568V6.49534H25.2619V22.3568H20.8992ZM23.0908 4.4507C22.4422 4.4507 21.8858 4.23385 21.4215 3.80013C20.9641 3.35954 20.7354 2.83289 20.7354 2.22019C20.7354 1.61437 20.9641 1.0946 21.4215 0.660894C21.8858 0.220298 22.4422 0 23.0908 0C23.7394 0 24.2924 0.220298 24.7498 0.660894C25.2141 1.0946 25.4462 1.61437 25.4462 2.22019C25.4462 2.83289 25.2141 3.35954 24.7498 3.80013C24.2924 4.23385 23.7394 4.4507 23.0908 4.4507Z" fill="#CBDBDC"/>
<path d="M35.8433 28.6353C34.4301 28.6353 33.2182 28.439 32.2078 28.0466C31.2042 27.6611 30.4054 27.1345 29.8114 26.4667C29.2174 25.7989 28.8317 25.0485 28.6542 24.2155L32.6891 23.6682C32.812 23.9849 33.0066 24.2809 33.2728 24.5563C33.5391 24.8317 33.8907 25.052 34.3277 25.2172C34.7714 25.3893 35.3108 25.4754 35.9457 25.4754C36.8947 25.4754 37.6765 25.2413 38.2909 24.7732C38.9122 24.3119 39.2228 23.5374 39.2228 22.4497V19.548H39.0385C38.8473 19.9886 38.5606 20.4051 38.1783 20.7975C37.7959 21.1899 37.3044 21.51 36.7036 21.7578C36.1028 22.0057 35.3859 22.1296 34.553 22.1296C33.3718 22.1296 32.2965 21.8542 31.3271 21.3035C30.3644 20.7458 29.5963 19.8956 29.0229 18.7528C28.4562 17.6032 28.1729 16.1506 28.1729 14.3951C28.1729 12.5983 28.463 11.0975 29.0433 9.89274C29.6237 8.68799 30.3951 7.78614 31.3578 7.18721C32.3273 6.58828 33.3889 6.28881 34.5427 6.28881C35.4234 6.28881 36.1608 6.44026 36.7548 6.74317C37.3487 7.0392 37.8267 7.41095 38.1885 7.85843C38.5572 8.29903 38.8405 8.73274 39.0385 9.15956H39.2024V6.49534H43.5343V22.5117C43.5343 23.861 43.2066 24.99 42.5511 25.8987C41.8957 26.8075 40.9877 27.489 39.8271 27.9434C38.6732 28.4046 37.3453 28.6353 35.8433 28.6353ZM35.9355 18.8251C36.6387 18.8251 37.2327 18.6496 37.7174 18.2985C38.209 17.9405 38.5845 17.4311 38.8439 16.7702C39.1102 16.1024 39.2433 15.3038 39.2433 14.3744C39.2433 13.445 39.1136 12.6396 38.8542 11.958C38.5947 11.2696 38.2192 10.7361 37.7277 10.3574C37.2361 9.9788 36.6387 9.78948 35.9355 9.78948C35.2186 9.78948 34.6144 9.98568 34.1228 10.3781C33.6313 10.7636 33.2592 11.3006 33.0066 11.989C32.754 12.6774 32.6277 13.4726 32.6277 14.3744C32.6277 15.29 32.754 16.0817 33.0066 16.7495C33.266 17.4104 33.6381 17.9233 34.1228 18.2881C34.6144 18.6461 35.2186 18.8251 35.9355 18.8251Z" fill="#CBDBDC"/>
<path d="M47.006 22.3568V6.49534H51.3686V22.3568H47.006ZM49.1975 4.4507C48.5489 4.4507 47.9925 4.23385 47.5282 3.80013C47.0708 3.35954 46.8421 2.83289 46.8421 2.22019C46.8421 1.61437 47.0708 1.0946 47.5282 0.660894C47.9925 0.220298 48.5489 0 49.1975 0C49.8461 0 50.3991 0.220298 50.8566 0.660894C51.3208 1.0946 51.5529 1.61437 51.5529 2.22019C51.5529 2.83289 51.3208 3.35954 50.8566 3.80013C50.3991 4.23385 49.8461 4.4507 49.1975 4.4507Z" fill="#CBDBDC"/>
<path d="M63.2302 6.49534V9.7998H53.7573V6.49534H63.2302ZM55.9079 2.6952H60.2705V17.4827C60.2705 17.8889 60.332 18.2055 60.4549 18.4327C60.5778 18.653 60.7485 18.8079 60.9669 18.8974C61.1922 18.9869 61.4517 19.0317 61.7452 19.0317C61.9501 19.0317 62.1549 19.0144 62.3597 18.98C62.5645 18.9387 62.7215 18.9077 62.8308 18.8871L63.5169 22.1606C63.2985 22.2294 62.9912 22.3086 62.5952 22.3981C62.1993 22.4945 61.7179 22.553 61.1513 22.5736C60.0999 22.6149 59.1782 22.4738 58.3862 22.1502C57.6011 21.8267 56.99 21.3241 56.5531 20.6426C56.1161 19.961 55.9011 19.1005 55.9079 18.061V2.6952Z" fill="#CBDBDC"/>
<path d="M70.5576 22.6562C69.554 22.6562 68.6596 22.4807 67.8745 22.1296C67.0893 21.7716 66.468 21.245 66.0106 20.5496C65.56 19.8474 65.3347 18.9731 65.3347 17.9267C65.3347 17.0455 65.4951 16.3055 65.816 15.7065C66.1369 15.1076 66.5739 14.6257 67.1269 14.2608C67.6799 13.896 68.308 13.6206 69.0112 13.4347C69.7212 13.2488 70.4654 13.118 71.2437 13.0423C72.1586 12.9459 72.8959 12.8564 73.4558 12.7738C74.0156 12.6843 74.4218 12.5535 74.6744 12.3814C74.927 12.2093 75.0534 11.9546 75.0534 11.6173V11.5553C75.0534 10.9013 74.8485 10.3953 74.4389 10.0373C74.0361 9.67933 73.4626 9.50034 72.7184 9.50034C71.9333 9.50034 71.3086 9.67589 70.8443 10.027C70.3801 10.3712 70.0728 10.8049 69.9226 11.3281L65.8877 10.9977C66.0925 10.0339 66.4953 9.20087 67.0961 8.49867C67.6969 7.78959 68.4718 7.24573 69.4208 6.86709C70.3767 6.48157 71.4827 6.28881 72.7389 6.28881C73.6128 6.28881 74.4491 6.39207 75.2479 6.5986C76.0536 6.80513 76.767 7.12525 77.3883 7.55896C78.0164 7.99267 78.5114 8.5503 78.8732 9.23185C79.2351 9.90651 79.416 10.7154 79.416 11.6586V22.3568H75.2787V20.1572H75.1558C74.9032 20.6529 74.5652 21.0901 74.1419 21.4687C73.7186 21.8404 73.21 22.133 72.616 22.3464C72.022 22.553 71.3359 22.6562 70.5576 22.6562ZM71.807 19.6203C72.4487 19.6203 73.0154 19.4929 73.507 19.2382C73.9985 18.9766 74.3843 18.6255 74.6642 18.1849C74.9441 17.7443 75.0841 17.2452 75.0841 16.6875V15.0043C74.9475 15.0938 74.7598 15.1764 74.5208 15.2522C74.2887 15.321 74.0258 15.3864 73.7323 15.4484C73.4387 15.5034 73.1451 15.5551 72.8516 15.6033C72.558 15.6446 72.2917 15.6824 72.0528 15.7169C71.5407 15.7926 71.0935 15.9131 70.7112 16.0783C70.3289 16.2435 70.0319 16.4672 69.8202 16.7495C69.6086 17.0249 69.5028 17.3691 69.5028 17.7822C69.5028 18.3811 69.7178 18.8389 70.1479 19.1556C70.5849 19.4654 71.1379 19.6203 71.807 19.6203Z" fill="#CBDBDC"/>
<path d="M87.1633 1.2082V22.3568H82.8006V1.2082H87.1633Z" fill="#CBDBDC"/>
<path d="M137.87 79.823L134.44 67.7381H137.208L139.192 76.135H139.292L141.48 67.7381H143.85L146.033 76.1527H146.138L148.122 67.7381H150.89L147.461 79.823H144.991L142.709 71.9218H142.615L140.339 79.823H137.87Z" fill="#CBDBDC"/>
<path d="M155.295 80C154.386 80 153.6 79.8053 152.937 79.4158C152.278 79.0224 151.768 78.4756 151.41 77.7754C151.051 77.0712 150.871 76.2549 150.871 75.3265C150.871 74.3903 151.051 73.572 151.41 72.8718C151.768 72.1676 152.278 71.6208 152.937 71.2314C153.6 70.838 154.386 70.6413 155.295 70.6413C156.204 70.6413 156.988 70.838 157.648 71.2314C158.311 71.6208 158.822 72.1676 159.181 72.8718C159.54 73.572 159.719 74.3903 159.719 75.3265C159.719 76.2549 159.54 77.0712 159.181 77.7754C158.822 78.4756 158.311 79.0224 157.648 79.4158C156.988 79.8053 156.204 80 155.295 80ZM155.307 78.0527C155.72 78.0527 156.066 77.9347 156.343 77.6987C156.62 77.4587 156.828 77.1322 156.969 76.7191C157.113 76.3061 157.185 75.836 157.185 75.3088C157.185 74.7817 157.113 74.3116 156.969 73.8985C156.828 73.4855 156.62 73.159 156.343 72.919C156.066 72.679 155.72 72.5591 155.307 72.5591C154.889 72.5591 154.538 72.679 154.254 72.919C153.973 73.159 153.76 73.4855 153.616 73.8985C153.475 74.3116 153.405 74.7817 153.405 75.3088C153.405 75.836 153.475 76.3061 153.616 76.7191C153.76 77.1322 153.973 77.4587 154.254 77.6987C154.538 77.9347 154.889 78.0527 155.307 78.0527Z" fill="#CBDBDC"/>
<path d="M161.34 79.823V70.7593H163.757V72.3407H163.851C164.015 71.7782 164.29 71.3533 164.676 71.0661C165.062 70.775 165.507 70.6295 166.01 70.6295C166.135 70.6295 166.27 70.6374 166.414 70.6531C166.558 70.6688 166.685 70.6905 166.794 70.718V72.9485C166.677 72.9131 166.515 72.8816 166.309 72.8541C166.102 72.8266 165.913 72.8128 165.741 72.8128C165.374 72.8128 165.047 72.8934 164.758 73.0547C164.473 73.2121 164.247 73.4324 164.079 73.7156C163.915 73.9989 163.833 74.3254 163.833 74.6952V79.823H161.34Z" fill="#CBDBDC"/>
<path d="M170.576 67.7381V79.823H168.083V67.7381H170.576Z" fill="#CBDBDC"/>
<path d="M175.885 79.9705C175.203 79.9705 174.584 79.7935 174.03 79.4394C173.48 79.0814 173.043 78.5563 172.719 77.8639C172.4 77.1676 172.24 76.3139 172.24 75.3029C172.24 74.2644 172.405 73.4009 172.737 72.7125C173.069 72.0201 173.509 71.5028 174.06 71.1606C174.614 70.8144 175.22 70.6413 175.88 70.6413C176.383 70.6413 176.802 70.7278 177.138 70.9009C177.477 71.0701 177.75 71.2825 177.957 71.5382C178.168 71.79 178.328 72.0378 178.437 72.2817H178.513V67.7381H181V79.823H178.542V78.3714H178.437C178.32 78.6231 178.154 78.8729 177.939 79.1208C177.729 79.3647 177.454 79.5673 177.114 79.7286C176.779 79.8899 176.369 79.9705 175.885 79.9705ZM176.675 77.9701C177.077 77.9701 177.417 77.86 177.694 77.6397C177.975 77.4154 178.189 77.1027 178.337 76.7014C178.49 76.3002 178.566 75.8301 178.566 75.2911C178.566 74.7522 178.491 74.2841 178.343 73.8867C178.195 73.4894 177.98 73.1826 177.699 72.9662C177.419 72.7499 177.077 72.6417 176.675 72.6417C176.266 72.6417 175.92 72.7538 175.64 72.978C175.359 73.2022 175.146 73.513 175.002 73.9103C174.857 74.3077 174.785 74.7679 174.785 75.2911C174.785 75.8183 174.857 76.2844 175.002 76.6896C175.15 77.0909 175.363 77.4056 175.64 77.6338C175.92 77.858 176.266 77.9701 176.675 77.9701Z" fill="#CBDBDC"/>
</svg>
