<svg width="119" height="119" viewBox="0 0 119 119" fill="none" xmlns="http://www.w3.org/2000/svg">
<path d="M107.777 106.834C107.777 107.55 86.8936 108.131 61.1323 108.131C35.3709 108.131 14.4873 107.55 14.4873 106.834C14.4873 106.118 35.3709 105.537 61.1323 105.537C86.8936 105.537 107.777 106.118 107.777 106.834Z" fill="#325355"/>
<path d="M103.23 47.6704L96.4029 78.3741C93.7223 90.4295 82.5706 98.3013 71.6214 95.8667L32.8474 87.2448C21.8981 84.8101 15.1343 72.9544 17.8149 60.899L24.6423 30.1953C25.4568 26.5329 27.0521 23.2569 29.1874 20.5387C31.1447 18.0454 33.5552 16.021 36.2306 14.5992C40.2421 12.466 44.85 11.6846 49.4229 12.7013L88.1972 21.3234C92.1503 22.2023 95.5575 24.3095 98.1717 27.2086C99.2006 28.3503 100.106 29.6148 100.874 30.9754C103.562 35.7366 104.563 41.6783 103.23 47.6704Z" fill="#325355"/>
<path d="M44.8797 32.3276C42.9829 40.8577 34.5296 46.2356 25.9994 44.3387C24.5108 44.0076 23.1177 43.4771 21.8438 42.781L24.6424 30.1953C25.4568 26.533 27.0521 23.2569 29.1875 20.5387C31.1448 18.0454 33.5552 16.021 36.2306 14.5992C42.7532 17.6932 46.5129 24.9822 44.8797 32.3276Z" fill="#4F6B6C"/>
<path d="M103.23 47.6704L100.047 61.984C99.8047 61.9405 99.5625 61.8917 99.3202 61.8379C89.6767 59.6935 83.597 50.1368 85.7413 40.4936C87.2055 33.9088 92.1269 28.9858 98.1716 27.2086C99.2005 28.3503 100.106 29.6148 100.874 30.9755C103.562 35.7367 104.563 41.6783 103.23 47.6704Z" fill="#4F6B6C"/>
<path d="M42.0814 69.5572C41.0239 74.3131 36.3111 77.3115 31.5551 76.2538C26.7991 75.1963 23.8008 70.4835 24.8585 65.7275C25.9159 60.9716 30.6288 57.9732 35.3848 59.0309C40.1409 60.0883 43.139 64.8012 42.0814 69.5572Z" fill="#4F6B6C"/>
<path d="M52.6438 56.7028C52.0676 59.2939 49.5003 60.927 46.9095 60.3511C44.3186 59.7749 42.6852 57.2073 43.2614 54.6165C43.8373 52.0256 46.4049 50.3922 48.9958 50.9684C51.5866 51.5446 53.22 54.1119 52.6438 56.7028Z" fill="#4F6B6C"/>
<path d="M22.1138 63.7064C21.5377 66.2973 18.9704 67.9307 16.3794 67.3545C13.7885 66.7783 12.1552 64.211 12.7313 61.6201C13.3075 59.0292 15.8749 57.3958 18.4657 57.972C21.0567 58.548 22.6899 61.1155 22.1138 63.7064Z" fill="#4F6B6C"/>
<path d="M102.197 77.594C101.435 81.0216 98.0389 83.1824 94.6112 82.4201C91.1833 81.6581 89.0225 78.2616 89.7848 74.8336C90.5469 71.406 93.9436 69.2452 97.3713 70.0075C100.799 70.7696 102.96 74.1663 102.197 77.594Z" fill="#4F6B6C"/>
<path d="M89.4241 71.0473C89.1285 72.3768 87.8109 73.215 86.4815 72.9192C85.1518 72.6236 84.3138 71.3062 84.6094 69.9765C84.905 68.6471 86.2225 67.8088 87.552 68.1044C88.8817 68.4003 89.7197 69.7176 89.4241 71.0473Z" fill="#4F6B6C"/>
<path d="M50.4728 25.5491C50.2658 26.4806 49.3426 27.0677 48.411 26.8607C47.4795 26.6534 46.8923 25.7304 47.0994 24.7989C47.3067 23.8673 48.2297 23.28 49.1612 23.4873C50.0927 23.6943 50.6801 24.6173 50.4728 25.5491Z" fill="#4F6B6C"/>
<path d="M87.5538 77.3878C87.406 78.0526 86.7475 78.4717 86.0825 78.3239C85.4178 78.1761 84.9986 77.5173 85.1467 76.8526C85.2945 76.1876 85.953 75.7687 86.618 75.9165C87.2827 76.0643 87.7018 76.7231 87.5538 77.3878Z" fill="#4F6B6C"/>
<path d="M46.7395 64.0822C46.5917 64.7469 45.9329 65.1661 45.2682 65.018C44.6032 64.8702 44.1844 64.2117 44.3322 63.5467C44.48 62.882 45.1387 62.4629 45.8035 62.6106C46.4682 62.7587 46.8873 63.4172 46.7395 64.0822Z" fill="#4F6B6C"/>
<path d="M55.5154 39.5418C55.7377 39.3464 55.8588 39.0606 55.9888 38.8009C56.2765 38.2259 56.539 37.6383 56.7746 37.0399C56.8941 36.7365 57.0069 36.4304 57.1128 36.122C57.2142 35.8268 57.2942 35.5227 57.4022 35.2302C57.4546 35.089 57.5305 34.9703 57.6255 34.8544C57.6312 34.8472 57.6367 34.8406 57.6424 34.8334C57.6412 34.8203 57.6429 34.8065 57.651 34.7932C57.7654 34.6078 57.8649 34.4188 57.9363 34.2127C57.9654 34.129 57.9899 34.0442 58.0129 33.9588C58.0279 33.8407 58.036 33.722 58.0408 33.607C58.0903 32.4008 57.6238 31.2377 57.6607 30.0334C57.4534 29.9347 57.1773 30.0732 56.9965 30.1841C56.8448 30.2769 56.6963 30.3705 56.5276 30.4302C56.3631 30.4883 56.1873 30.5152 56.013 30.5192C55.3621 30.534 54.7459 30.2553 54.13 30.0844C53.7908 29.9904 53.4462 29.9161 53.0987 29.8609C52.7815 29.8104 52.413 29.7314 52.1022 29.8476C51.9875 29.8904 51.878 29.9666 51.8135 30.0725C51.7419 30.1901 51.7395 30.33 51.7578 30.4626C51.7983 30.7574 51.9018 31.0378 51.7981 31.3327C51.7416 31.4936 51.66 31.6466 51.5879 31.8008C51.5113 31.9648 51.4346 32.1286 51.357 32.2923C51.2814 32.4518 51.2057 32.6112 51.13 32.7707C51.0507 32.9378 50.9777 33.1098 50.8677 33.2591C50.8472 33.2869 50.813 33.2893 50.7899 33.275C50.758 33.285 50.7223 33.2826 50.6904 33.2557C50.5845 33.1658 50.5117 33.047 50.4315 32.9351C50.3632 32.8395 50.2734 32.7383 50.1528 32.7131C50.0326 32.6879 49.9531 32.785 49.8831 32.8671C49.8036 32.9601 49.7246 33.0539 49.662 33.1593C49.5247 33.39 49.5249 33.6532 49.5566 33.9124C49.5904 34.1887 49.6449 34.4641 49.7094 34.7349C49.741 34.8687 49.7751 35.0022 49.8146 35.1338C49.8398 35.218 49.8731 35.3011 49.9309 35.3673C49.9569 35.3068 50.0552 35.3161 50.0611 35.3937C50.074 35.5605 50.0847 35.7276 50.0985 35.8944C50.1261 36.2307 50.1537 36.5673 50.202 36.9014C50.2244 37.0559 50.2515 37.2108 50.3046 37.3581C50.3539 37.4952 50.4315 37.6221 50.5221 37.7358C50.698 37.9567 50.9139 38.1497 51.1257 38.3354C51.3413 38.5243 51.5665 38.7024 51.8023 38.8656C52.2619 39.1843 52.7608 39.4511 53.2925 39.6279C53.7856 39.7922 54.3387 39.9135 54.8592 39.826C55.0958 39.7862 55.3328 39.7024 55.5154 39.5418Z" fill="#CBDBDC"/>
<path d="M49.0145 34.5241C49.1083 34.8401 49.2316 35.1443 49.3392 35.4556C49.4251 35.7048 49.486 35.9587 49.4632 36.2179C49.5179 36.0434 49.5693 35.868 49.6055 35.6891C49.6388 35.5248 49.6526 35.3587 49.6528 35.1921C49.6507 35.1847 49.6481 35.1776 49.6459 35.1702C49.5943 35.0012 49.55 34.8296 49.51 34.6573C49.4403 34.3553 49.3737 34.0433 49.3565 33.7332C49.3482 33.584 49.3575 33.4302 49.401 33.2867C49.4429 33.1494 49.516 33.0258 49.6014 32.9118C49.6847 32.8009 49.7718 32.6769 49.883 32.5924C49.9937 32.5082 50.1336 32.4899 50.2635 32.5396C50.3963 32.5903 50.4965 32.6867 50.581 32.7981C50.6546 32.8949 50.7188 32.9973 50.8071 33.0808C50.8595 32.9275 50.933 32.7802 50.9994 32.6331C51.0866 32.4396 51.1737 32.2462 51.261 32.0527C51.3445 31.8673 51.4297 31.6828 51.5142 31.4979C51.5913 31.3296 51.6582 31.1723 51.6447 30.9833C51.6232 30.6906 51.484 30.3969 51.579 30.1032C51.6737 29.81 51.9631 29.6429 52.2547 29.6022C52.4305 29.5779 52.6064 29.591 52.7821 29.612C52.9656 29.6339 53.1488 29.6608 53.3311 29.6931C53.686 29.7557 54.0378 29.8385 54.3836 29.9404C54.7063 30.0356 55.024 30.1477 55.352 30.2251C55.659 30.2976 55.9851 30.3419 56.2973 30.2743C56.4539 30.2405 56.5963 30.1779 56.7336 30.0961C56.8747 30.012 57.0099 29.9197 57.1622 29.8566C57.3321 29.7862 57.5418 29.7655 57.717 29.83C57.7803 29.7938 57.8779 29.8202 57.8738 29.914C57.8738 29.9166 57.8738 29.9195 57.8738 29.9221C57.8926 29.9385 57.9117 29.9547 57.9283 29.9747C57.9878 30.0461 57.936 30.1377 57.8695 30.1558C57.87 30.2317 57.8717 30.3079 57.8753 30.3838C57.916 31.2439 58.1597 32.0964 58.2346 32.9544C58.2765 32.775 58.3253 32.5977 58.3903 32.4251C58.4648 32.2276 58.5628 32.0436 58.6785 31.8673C58.8044 31.6754 58.9329 31.4869 59.0334 31.2801C59.2223 30.8919 59.3309 30.4483 59.2692 30.0159C59.2135 29.6255 59.0262 29.2716 58.7709 28.9751C58.7642 28.9708 58.7571 28.9682 58.7506 28.9617C58.6557 28.868 58.5581 28.7771 58.4572 28.6895C57.622 27.9638 56.5965 27.4821 55.5281 27.2139C54.9938 27.0796 54.4474 26.998 53.8976 26.9649C53.3066 26.9295 52.7052 26.9409 52.119 27.028C51.5214 27.117 50.9297 27.2903 50.4137 27.6113C49.9658 27.89 49.5786 28.2754 49.3411 28.7497C49.2011 29.0293 49.1314 29.3357 49.0674 29.6398C48.9974 29.9718 48.9243 30.3053 48.9019 30.6447C48.8801 30.9745 48.9362 31.3022 48.9193 31.6316C48.9108 31.7999 48.8758 31.9603 48.8203 32.1193C48.767 32.2723 48.7096 32.423 48.698 32.5863C48.6747 32.9125 48.7356 33.2534 48.7913 33.5742C48.8472 33.8948 48.9217 34.212 49.0145 34.5241Z" fill="#CBDBDC"/>
<path d="M49.8772 35.5124C49.8562 35.5017 49.8379 35.4889 49.8205 35.4751C49.7991 35.8635 49.6611 36.2462 49.548 36.6134C49.4102 37.0606 49.2693 37.5069 49.1289 37.9534C49.0587 38.1766 48.9887 38.3999 48.9185 38.6231C48.884 38.7326 48.8497 38.8423 48.8152 38.9518C48.7843 39.0505 48.7386 39.1622 48.7612 39.2676C48.7805 39.3573 48.8431 39.4347 48.899 39.5051C48.9549 39.5758 49.013 39.6446 49.0732 39.7117C49.1948 39.8474 49.325 39.9754 49.4619 40.0958C50.0107 40.579 50.6683 40.93 51.3504 41.1852C51.7003 41.3158 52.0587 41.4232 52.4214 41.5124C52.8129 41.6086 53.2123 41.6943 53.6135 41.7354C53.8401 41.7588 54.0688 41.7659 54.2956 41.7435C54.3535 41.7378 54.4115 41.7302 54.4687 41.7192C54.4963 41.714 54.5458 41.709 54.5651 41.6857C54.5891 41.6564 54.5739 41.5895 54.5715 41.556C54.5679 41.5036 54.5643 41.451 54.5605 41.3984C54.5298 40.9536 54.4989 40.509 54.468 40.0642C54.4587 40.064 54.4494 40.0642 54.4401 40.064C53.8729 40.0492 53.3087 39.885 52.7905 39.6624C52.2534 39.4318 51.7569 39.1172 51.2992 38.7554C51.0672 38.5722 50.8456 38.3756 50.635 38.1683C50.4196 37.9565 50.2175 37.7239 50.1114 37.4367C50.0557 37.286 50.0285 37.1266 50.0069 36.9678C49.9833 36.7945 49.9633 36.6208 49.9474 36.4466C49.9193 36.1379 49.9076 35.828 49.9195 35.5186C49.9057 35.5208 49.8912 35.5198 49.8772 35.5124Z" fill="#CBDBDC"/>
<path d="M24.3372 70.845C24.52 70.7315 24.6978 70.6103 24.871 70.483C25.2214 70.2257 25.5515 69.9425 25.8725 69.65C26.0327 69.5043 26.1903 69.3558 26.3466 69.2059C26.5006 69.0586 26.6482 68.8889 26.8274 68.7722C26.8964 68.7273 26.9902 68.8179 26.9426 68.8877C26.865 69.001 26.7638 69.0954 26.6655 69.1909C26.5696 69.2842 26.4735 69.3772 26.3764 69.4696C26.1855 69.6514 25.9925 69.8311 25.7942 70.0051C25.4375 70.3185 25.0652 70.6163 24.6699 70.88C24.5626 70.9516 24.4529 71.0201 24.3419 71.0863C24.2913 71.2258 24.3239 71.3871 24.4255 71.4973C24.5528 71.6354 24.7465 71.6792 24.9279 71.6768C25.3156 71.6718 25.6736 71.4835 25.9944 71.2831C26.3357 71.0699 26.6663 70.8381 26.9902 70.5996C27.3231 70.3542 27.6475 70.0974 27.9629 69.8297C28.1178 69.6983 28.272 69.5653 28.421 69.4275C28.4927 69.3611 28.5624 69.2927 28.6257 69.2185C28.6835 69.1507 28.7292 69.0752 28.7992 69.0193C28.8449 68.9829 28.9401 68.9993 28.9315 69.0743C28.9173 69.2006 28.8437 69.2923 28.7614 69.386C28.6871 69.4705 28.605 69.5479 28.5215 69.6233C28.3323 69.7944 28.1385 69.961 27.9417 70.1238C27.6977 70.3254 27.4471 70.5189 27.1934 70.7081C27.2553 70.8214 27.3967 70.8823 27.52 70.8883C27.7001 70.8971 27.8786 70.8383 28.05 70.7907C28.3227 70.715 28.5952 70.6272 28.8368 70.4766C29.0955 70.3152 29.2745 70.0793 29.4225 69.8171C29.5808 69.5365 29.7203 69.2442 29.8516 68.9505C29.9204 68.7968 29.9854 68.6416 30.0492 68.4857C30.1127 68.3296 30.1672 68.1696 30.2482 68.0216C30.2508 68.0168 30.2543 68.014 30.2574 68.0102C30.4319 67.5323 30.6368 67.0632 30.8641 66.6105C31.1395 66.0617 31.462 65.539 31.8497 65.0618C32.2302 64.5932 32.6615 64.1698 33.0854 63.7412C33.5021 63.3199 33.9338 62.8917 34.2718 62.4026C34.3513 62.2879 34.4291 62.1546 34.411 62.0092C34.401 61.9274 34.3632 61.8514 34.3168 61.7817C34.282 61.7965 34.2408 61.7903 34.222 61.7472C34.1947 61.6839 34.1666 61.6225 34.1371 61.5618C33.9533 61.3569 33.7563 61.1639 33.5775 60.9544C33.549 60.9209 33.5475 60.8828 33.5606 60.8516C33.3495 60.6726 33.1122 60.5117 32.8616 60.3994C32.5287 60.2504 32.1736 60.2687 31.8223 60.3311C31.5619 60.3775 31.1847 60.4829 31.0119 60.2042C30.9902 60.1695 30.976 60.1321 30.9669 60.0933C30.9181 60.1209 30.8896 60.1802 30.877 60.2376C30.8543 60.3416 30.8601 60.4494 30.8225 60.5505C30.752 60.7409 30.5916 60.8811 30.4545 61.0241C29.9026 61.5999 29.3737 62.1984 28.8675 62.8149C28.6148 63.1224 28.3684 63.4351 28.129 63.7531C28.064 63.8394 27.9995 63.9261 27.9355 64.013C27.8867 64.0791 27.8403 64.1717 27.7672 64.2145C27.6944 64.2571 27.5992 64.2298 27.5666 64.1577C27.4971 64.18 27.4281 64.2036 27.3607 64.2324C27.2068 64.2988 27.0587 64.3771 26.9178 64.468C26.6217 64.6594 26.3614 64.8997 26.0979 65.1323C25.0888 66.0236 24.0773 66.9123 23.0662 67.801C22.9547 67.899 22.8363 67.993 22.7379 68.1044C22.6644 68.1875 22.5881 68.3027 22.6206 68.4188C22.649 68.52 22.747 68.5825 22.8437 68.6075C22.9762 68.642 23.1178 68.6009 23.2405 68.5499C23.5157 68.4362 23.779 68.2746 24.028 68.1127C24.1544 68.0304 24.2782 67.9442 24.3986 67.8538C24.401 67.8519 24.4034 67.8502 24.4055 67.8483C24.4069 67.8376 24.411 67.8274 24.4191 67.8195C24.4886 67.7526 24.574 67.705 24.6568 67.6553C24.6901 67.6303 24.7225 67.6041 24.757 67.5813C24.7692 67.5732 24.7811 67.5694 24.7925 67.568C24.8594 67.5232 24.9253 67.4773 24.9888 67.4285C25.0817 67.3573 25.1702 67.28 25.2542 67.1988C25.2954 67.1588 25.3358 67.1179 25.3751 67.076C25.4165 67.0322 25.4501 66.9834 25.5134 66.9746C25.5569 66.9687 25.5986 66.9915 25.5995 67.0403C25.601 67.1129 25.5529 67.1574 25.5065 67.2074C25.4653 67.2517 25.4227 67.2945 25.3787 67.3361C25.2897 67.4206 25.1954 67.4992 25.0976 67.5734C25.0093 67.6408 24.9172 67.7015 24.8218 67.7572C24.7073 67.8738 24.5733 67.9723 24.4426 68.0697C24.2963 68.1787 24.1454 68.2815 23.9907 68.3783C23.8869 68.4433 23.7807 68.5043 23.6736 68.5635C23.6718 68.5697 23.6689 68.5759 23.6642 68.5821C23.5843 68.688 23.4793 68.7732 23.3785 68.8591C23.278 68.9448 23.1743 69.0271 23.0699 69.1083C22.8689 69.2642 22.6512 69.4046 22.4588 69.5707C22.345 69.6693 22.173 69.8368 22.2477 70.0046C22.3175 70.1614 22.5289 70.1717 22.6702 70.1334C22.8783 70.077 23.0729 69.9506 23.26 69.8461C23.4534 69.738 23.644 69.6252 23.8319 69.5074C24.2032 69.2749 24.5635 69.024 24.9096 68.7553C25.2602 68.4828 25.5819 68.176 25.9311 67.9028C26.0118 67.8398 26.1141 67.9366 26.0451 68.0168C25.8663 68.2236 25.6593 68.4024 25.4506 68.5785C25.2473 68.7499 25.0388 68.9148 24.8258 69.074C24.4557 69.3508 24.0709 69.6079 23.6738 69.8447C23.6686 69.8573 23.6602 69.8689 23.6455 69.8766C23.4528 69.9768 23.2761 70.1117 23.1354 70.2773C22.9991 70.4375 22.8681 70.6567 22.8887 70.875C22.9051 71.0473 23.0424 71.1689 23.2007 71.2174C23.3909 71.276 23.5894 71.231 23.7685 71.156C23.9669 71.0727 24.1546 70.958 24.3372 70.845Z" fill="#CBDBDC"/>
<path d="M31.389 60.1786C31.5332 60.1824 31.675 60.1414 31.8164 60.1176C31.989 60.0883 32.1641 60.0667 32.3395 60.0719C32.6773 60.0819 32.9793 60.2073 33.2613 60.3868C33.5098 60.5451 33.7456 60.7293 33.9434 60.9487C34.0577 61.0756 34.1693 61.2212 34.2535 61.3783C34.3095 61.438 34.3637 61.4992 34.4144 61.5632C34.4589 61.5221 34.5037 61.4811 34.5498 61.4419C35.1629 60.9204 35.7567 60.3759 36.3168 59.798C36.8756 59.2213 37.402 58.6149 37.894 57.9804C38.3678 57.369 38.8198 56.7366 39.3584 56.1787C39.6342 55.8929 39.9336 55.6347 40.2564 55.4026C40.5955 55.1587 40.9394 54.9273 41.2507 54.6472C41.5735 54.3571 41.8788 54.0467 42.1889 53.7433C42.4762 53.4624 42.7632 53.1818 43.0502 52.901C42.986 52.8501 42.9227 52.7979 42.8596 52.7477C42.5117 52.4716 42.1587 52.2017 41.7962 51.9449C41.0729 51.4328 40.3073 50.9649 39.4841 50.6309C39.2815 50.5488 39.0756 50.4748 38.8669 50.4098C38.681 50.352 38.4902 50.308 38.3074 50.2409C38.2067 50.2042 38.1027 50.1554 38.0077 50.0954C38.0058 50.1064 38.0035 50.1173 37.9989 50.128C37.6881 50.853 37.2469 51.5096 36.7656 52.1315C35.9114 53.2347 34.9183 54.2397 34.2145 55.4531C34.0146 55.7977 33.8582 56.1666 33.6466 56.5045C33.4222 56.8632 33.1571 57.1986 32.9074 57.5398C32.6456 57.8978 32.3828 58.2553 32.1206 58.613C31.8949 58.9202 31.6731 59.2332 31.427 59.5248C31.4287 59.5355 31.4289 59.5467 31.4266 59.5569C31.4063 59.6488 31.3266 59.6952 31.2678 59.7635C31.2197 59.8192 31.1793 59.8853 31.169 59.9596C31.1495 60.1052 31.2569 60.175 31.389 60.1786Z" fill="#CBDBDC"/>
<path d="M33.008 86.6827C32.4185 86.453 31.9558 85.8621 32.0872 85.2061C32.1536 84.8751 32.3468 84.5702 32.551 84.307C32.7524 84.0475 32.9887 83.8179 33.2396 83.6063C33.7817 83.1489 34.3741 82.7445 34.9817 82.3796C35.2868 82.1964 35.5981 82.0079 35.9306 81.8787C36.1591 81.7896 36.4142 81.7392 36.6539 81.7858C36.592 81.6664 36.5178 81.5528 36.4319 81.4498C36.1741 81.1401 35.8228 80.9048 35.4375 80.7862C35.007 80.6539 34.5712 80.6901 34.149 80.8372C33.6696 81.0042 33.2293 81.2727 32.7747 81.495C32.3007 81.727 31.8178 81.9408 31.3277 82.1371C30.3529 82.5272 29.349 82.8445 28.327 83.0851C27.371 83.31 26.3564 83.4466 25.5395 84.0356C24.821 84.554 24.3331 85.3294 23.9557 86.1165C23.8602 86.3154 23.771 86.5173 23.6866 86.7208C23.5916 86.95 23.486 87.1842 23.4471 87.4307C23.413 87.6473 23.4574 87.8594 23.5856 88.0376C23.6984 88.1942 23.8614 88.3106 24.0292 88.4018C24.2132 88.5017 24.4102 88.5705 24.6111 88.6274C24.867 88.6997 25.1288 88.7547 25.3934 88.7828C25.9113 88.8378 26.4213 88.7861 26.919 88.6343C27.87 88.3442 28.7202 87.7982 29.6867 87.5485C30.7153 87.2827 31.7859 87.2727 32.8407 87.2213C33.364 87.1958 33.9079 87.1846 34.4153 87.0423C34.7573 86.9464 35.0853 86.7684 35.3052 86.4909C34.5738 86.7327 33.7613 86.9759 33.008 86.6827Z" fill="#CBDBDC"/>
<path d="M47.9254 85.9042C47.8476 85.8225 47.7991 85.7204 47.7579 85.6164C47.5627 85.1235 47.5023 84.5838 47.4935 84.0571C47.4842 83.5109 47.5261 82.9635 47.5582 82.4184C47.5918 81.8484 47.632 81.2787 47.6939 80.711C47.7246 80.4271 47.7614 80.1441 47.8055 79.8621C47.845 79.6105 47.8871 79.3582 47.958 79.1138C47.2062 78.8625 46.4258 78.6752 45.6273 78.7444C45.2555 78.7768 44.8957 78.8732 44.5501 79.0127C44.1988 79.1543 43.8647 79.3354 43.5265 79.5053C42.7968 79.8716 42.0359 80.1722 41.2824 80.4852C40.5165 80.8029 39.7508 81.1209 38.985 81.4386C38.266 81.7368 37.5317 82.031 36.7456 82.0755C36.6735 82.0795 36.6407 82.0226 36.6447 81.9665C36.3653 81.9241 36.0842 82.02 35.8286 82.145C35.4937 82.3087 35.1712 82.5053 34.8554 82.7031C34.2966 83.0527 33.7449 83.4335 33.2525 83.8731C33.0266 84.0747 32.8127 84.2941 32.6373 84.5421C32.4626 84.7887 32.2886 85.0824 32.2753 85.392C32.2631 85.6693 32.3824 85.9382 32.5675 86.1408C32.7679 86.36 33.0364 86.4928 33.3237 86.557C33.8596 86.6767 34.3996 86.5542 34.9168 86.3935C34.8897 86.3654 34.8914 86.3083 34.9401 86.2909C35.0437 86.2538 35.1486 86.2236 35.255 86.1957C35.6722 86.0865 36.1099 86.0765 36.539 86.0843C37.0015 86.0927 37.4639 86.1079 37.9261 86.1217C38.8598 86.1491 39.7934 86.1776 40.7271 86.2081C41.6608 86.2386 42.5947 86.269 43.5284 86.2995C44.4366 86.3293 45.346 86.3738 46.2547 86.384C46.9763 86.3921 47.7248 86.349 48.3883 86.0479C48.3403 86.0486 48.2924 86.0482 48.2451 86.0446C48.1227 86.0353 48.0116 85.9944 47.9254 85.9042Z" fill="#CBDBDC"/>
<path d="M53.9648 80.9683C53.1491 80.5049 52.3395 80.0051 51.4408 79.7164C50.4847 79.4094 49.4342 79.4601 48.5158 79.0286C48.5043 79.0234 48.4932 79.0172 48.482 79.0117C48.4458 79.0398 48.4041 79.0622 48.3673 79.0893C48.3646 79.0912 48.362 79.0934 48.3592 79.0953C48.3532 79.1 48.3556 79.0981 48.3668 79.0895C48.363 79.09 48.3565 79.0976 48.3537 79.1C48.3442 79.1079 48.3346 79.116 48.3254 79.1241C48.3078 79.1398 48.2904 79.1559 48.2737 79.1726C48.2561 79.19 48.2394 79.2081 48.2233 79.2271C48.2154 79.2364 48.2076 79.2459 48.1997 79.2557C48.1961 79.26 48.1928 79.2642 48.1892 79.2685C48.1888 79.2692 48.189 79.2688 48.1888 79.269C48.1709 79.2928 48.1519 79.3154 48.1333 79.3385C48.1269 79.3468 48.119 79.3601 48.1102 79.3659C48.1085 79.3671 48.1081 79.3671 48.1081 79.3666C48.1078 79.3671 48.1078 79.3668 48.1074 79.3678C48.1035 79.373 48.1 79.379 48.0962 79.3844C48.0909 79.3928 48.0843 79.3994 48.0769 79.4049C48.0745 79.4213 48.0721 79.4375 48.0698 79.4539C47.9831 80.0001 47.9122 80.5471 47.8636 81.0983C47.8156 81.6454 47.7832 82.194 47.752 82.7424C47.7225 83.2645 47.6866 83.7886 47.7149 84.3117C47.7285 84.5669 47.7582 84.8208 47.8144 85.07C47.8427 85.1952 47.8772 85.3187 47.9189 85.4399C47.9529 85.5389 47.9884 85.645 48.0536 85.7286C48.1235 85.8183 48.2152 85.8345 48.3239 85.8337C48.4605 85.833 48.5974 85.8276 48.7338 85.8221C49.0101 85.8107 49.2864 85.7928 49.562 85.7685C50.108 85.7205 50.6516 85.6464 51.1906 85.547C51.4627 85.4967 51.7335 85.4401 52.0029 85.377C52.2586 85.3173 52.517 85.258 52.7645 85.1697C52.9909 85.089 53.2015 84.9731 53.3838 84.8161C53.5595 84.6649 53.712 84.4883 53.8491 84.3022C54.1545 83.8876 54.4213 83.4404 54.6797 82.9958C54.9282 82.5682 55.1581 82.1309 55.3802 81.6892C55.3257 81.6659 55.2714 81.6421 55.2174 81.6183C54.7871 81.4272 54.3737 81.2008 53.9648 80.9683Z" fill="#CBDBDC"/>
<path d="M64.0003 83.5202C63.5819 83.9785 63.1733 84.4531 62.6713 84.8237C62.5476 84.9151 62.4169 85.0003 62.281 85.075C62.3567 85.0676 62.4324 85.0595 62.5078 85.0491C62.9955 84.9824 63.475 84.8672 63.9377 84.699C64.1676 84.6154 64.3923 84.5188 64.6113 84.4098C64.7196 84.3558 64.8264 84.2989 64.9316 84.2392C65.0392 84.178 65.1425 84.1021 65.2543 84.0492C65.2677 84.043 65.2815 84.0404 65.2953 84.0402C65.2719 83.975 65.2491 83.9098 65.2258 83.8448C65.1522 83.6401 65.0794 83.4352 65.0073 83.23C64.9704 83.1253 64.933 83.0211 64.8971 82.9161C64.8735 82.848 64.84 82.7728 64.8283 82.6986C64.5391 82.9582 64.2633 83.2324 64.0003 83.5202Z" fill="#CBDBDC"/>
<path d="M72.3686 105.616C72.1342 105.434 71.8545 105.308 71.5758 105.209C71.2867 105.107 70.9892 105.031 70.6941 104.948C70.3977 104.866 70.1048 104.773 69.8163 104.666C69.2375 104.453 68.6761 104.192 68.1406 103.886C67.6022 103.578 67.0888 103.224 66.6116 102.828C66.4986 102.734 66.3846 102.636 66.3082 102.509C66.2258 102.371 66.2061 102.212 66.1968 102.056C66.1889 101.919 66.1909 101.775 66.1245 101.652C66.0769 101.563 65.985 101.457 65.8722 101.473C65.846 101.477 65.8236 101.47 65.8065 101.457C65.6366 101.453 65.4723 101.373 65.3222 101.298C65.1225 101.199 64.9249 101.095 64.7274 100.991C64.333 100.784 63.9384 100.576 63.5284 100.401C63.1209 100.226 62.6946 100.088 62.2562 100.018C62.0416 99.9841 61.8243 99.9698 61.607 99.9743C61.3999 99.9783 61.1988 100.014 60.9941 100.039C60.9565 100.08 60.9222 100.125 60.9023 100.177C60.8861 100.219 60.877 100.269 60.8949 100.312C60.912 100.354 60.9339 100.389 60.9411 100.435C60.957 100.537 60.9242 100.641 60.8711 100.728C60.8187 100.814 60.7437 100.882 60.6778 100.957C60.6459 100.993 60.6214 101.031 60.5981 101.074C60.5733 101.118 60.5448 101.157 60.4889 101.156C60.4793 101.156 60.4698 101.155 60.4608 101.151C60.1449 101.528 59.8867 101.946 59.6806 102.396C59.4469 102.907 59.2805 103.447 59.1346 103.989C59.062 104.258 58.9906 104.53 58.9285 104.802C58.8707 105.055 58.8195 105.33 58.8685 105.589C58.9166 105.843 59.0682 106.044 59.3079 106.147C59.5499 106.251 59.8232 106.259 60.0823 106.262C60.4298 106.266 60.7775 106.255 61.1241 106.229C61.4706 106.203 61.8138 106.154 62.1591 106.117C62.2077 106.112 62.2377 106.144 62.2481 106.184C62.2674 106.182 62.2865 106.179 62.3057 106.177C63.7011 106.04 65.1072 106.065 66.5045 106.162C67.913 106.259 69.3146 106.431 70.7176 106.585C71.0715 106.624 71.429 106.658 71.785 106.626C72.0509 106.602 72.3612 106.527 72.5193 106.29C72.5876 106.188 72.6314 106.061 72.605 105.938C72.5762 105.803 72.4743 105.698 72.3686 105.616Z" fill="#CBDBDC"/>
<path d="M72.6557 86.0261C72.586 85.9823 72.5153 85.9397 72.4442 85.898C72.4415 85.8966 72.4389 85.8954 72.4365 85.8935C72.377 85.8587 72.3173 85.8245 72.2568 85.7914C71.1371 85.1762 69.8676 84.8394 68.5912 84.802C67.9529 84.7832 67.3126 84.838 66.6881 84.9717C66.5334 85.005 66.379 85.0419 66.2266 85.0857C66.0753 85.1288 65.9232 85.1816 65.7951 85.2759C65.5571 85.4506 65.4529 85.7471 65.3741 86.0196C65.1673 86.7367 64.9838 87.4612 64.7891 88.1819C64.5923 88.9106 64.395 89.6394 64.2153 90.3727C64.0349 91.109 63.8742 91.8502 63.7046 92.5892C63.5384 93.3129 63.3523 94.0319 63.1457 94.7452C62.9427 95.4468 62.718 96.1418 62.4708 96.8289C62.3484 97.1685 62.2211 97.506 62.0885 97.8415C61.9533 98.1831 61.8029 98.518 61.6539 98.8536C61.6451 98.8733 61.629 98.8823 61.6111 98.8845C61.5944 98.9228 61.579 98.9611 61.5621 98.9992C61.4633 99.2234 61.3664 99.4492 61.2605 99.6703C61.2334 99.7267 61.202 99.7798 61.1672 99.831C61.3317 99.7965 61.5042 99.7855 61.6673 99.7829C61.9141 99.7791 62.1611 99.8036 62.4041 99.8462C63.279 100 64.0744 100.418 64.8543 100.823C65.0485 100.924 65.243 101.025 65.4396 101.122C65.5931 101.197 65.8097 101.314 65.9727 101.2C66.081 101.125 66.1379 100.988 66.205 100.879C66.275 100.765 66.3621 100.649 66.492 100.606C66.4987 100.596 66.5056 100.585 66.512 100.575C66.5636 100.492 66.6153 100.409 66.6667 100.326C66.77 100.16 66.873 99.9933 66.9761 99.8272C67.0818 99.657 67.1886 99.4878 67.2953 99.3186C67.3476 99.2358 67.4019 99.1543 67.4573 99.0736C67.4761 99.0463 67.4968 99.0216 67.5171 98.9963C67.7144 98.5889 67.9269 98.1883 68.1328 97.7854C68.3553 97.3494 68.5752 96.9119 68.7918 96.4728C69.2247 95.5949 69.6469 94.7116 70.0503 93.8198C70.4511 92.9338 70.835 92.0398 71.1937 91.1357C71.5524 90.232 71.8868 89.3188 72.1909 88.3954C72.3437 87.9315 72.4889 87.465 72.6257 86.9962C72.6921 86.7686 72.7902 86.5244 72.7888 86.2848C72.7883 86.205 72.7664 86.1141 72.7229 86.0399C72.7019 86.043 72.6793 86.0408 72.6557 86.0261Z" fill="#CBDBDC"/>
<path d="M72.4338 81.3044C72.2246 80.9374 71.9859 80.5737 71.8312 80.1803C71.8293 80.1751 71.8289 80.1698 71.8286 80.1648C71.7815 80.1536 71.7346 80.1417 71.6882 80.1317C71.3352 80.0549 70.9613 80.0949 70.6058 80.1325C69.9786 80.1984 69.3582 80.3262 68.7546 80.5075C67.5377 80.8726 66.3865 81.4622 65.3791 82.2364C65.2317 82.3497 65.0894 82.4687 64.9495 82.59C64.9868 82.6284 65.0047 82.6802 65.0242 82.7295C65.044 82.7793 65.0639 82.8288 65.083 82.8785C65.1208 82.9782 65.1577 83.0784 65.1951 83.1784C65.2712 83.3821 65.3467 83.5863 65.4214 83.7908C65.5585 84.1663 65.7006 84.5405 65.8332 84.9177C65.8653 84.9241 65.8922 84.9479 65.8941 84.9841C65.9852 84.9422 66.0812 84.9072 66.1818 84.8789C66.4936 84.7906 66.8123 84.7249 67.1329 84.6775C67.7798 84.5821 68.4364 84.5619 69.0878 84.6199C70.2564 84.7242 71.4009 85.0702 72.4243 85.6436C72.5095 85.2683 72.6338 84.9034 72.753 84.5378C72.8699 84.1792 72.9841 83.8143 73.0322 83.439C73.0798 83.0699 73.0553 82.7024 72.9398 82.3478C72.8196 81.9791 72.625 81.6397 72.4338 81.3044Z" fill="#CBDBDC"/>
<path d="M59.4914 82.9742C59.6399 83.2829 59.8275 83.5708 60.0317 83.8455C60.2321 84.1154 60.4489 84.3738 60.6664 84.6302C60.8499 84.8465 61.0672 85.0914 61.3671 85.1247C61.6829 85.16 62.009 84.9943 62.2731 84.8379C62.5323 84.6847 62.7665 84.4947 62.9857 84.2891C63.4355 83.8669 63.8228 83.384 64.2585 82.9482C64.7012 82.5055 65.1846 82.1036 65.6984 81.7466C66.7199 81.0373 67.869 80.5109 69.0723 80.1981C69.6811 80.0399 70.3054 79.9361 70.933 79.8918C71.1134 79.879 71.295 79.8725 71.4756 79.8883C71.5744 79.8968 71.6732 79.9113 71.7701 79.9335C71.8545 79.953 71.9388 79.9799 72.0254 79.9885C72.1266 79.9984 72.3141 79.972 72.3232 79.8361C72.3277 79.7681 72.2729 79.6993 72.2525 79.6367C72.2287 79.5646 72.2344 79.4989 72.2646 79.4301C72.2699 79.418 72.2787 79.4084 72.2887 79.4008C72.0964 78.4938 71.5787 77.7034 71.2179 76.8604C71.0125 76.3809 70.8502 75.8849 70.6517 75.4027C70.4722 74.9662 70.2649 74.5413 70.0384 74.1275C69.5788 73.2876 69.0378 72.495 68.4588 71.7337C68.171 71.3557 67.8726 70.9861 67.5703 70.6196C67.2638 70.2481 66.9375 69.8896 66.6547 69.4996C66.377 69.1161 66.1597 68.6863 66.1111 68.2098C66.0873 67.978 66.1099 67.7405 66.187 67.5203C66.2268 67.4071 66.2796 67.2933 66.2794 67.1712C66.2792 67.1022 66.2611 67.0336 66.2306 66.9713C66.1647 67.1781 66.049 67.3692 65.8891 67.5151C65.5851 67.7926 65.1715 67.9028 64.7788 67.9861C63.9044 68.1715 63.0028 68.181 62.1165 68.0863C60.3006 67.8926 58.5722 67.2828 56.8027 66.867C55.9131 66.6578 55.0082 66.4986 54.0928 66.4765C53.1813 66.4541 52.2724 66.5667 51.3825 66.7592C50.9393 66.8549 50.5007 66.9701 50.0659 67.0981C49.8453 67.1633 49.6268 67.2352 49.4069 67.3021C49.2388 67.3533 49.0584 67.3935 48.8828 67.3633C48.7597 67.3423 48.6695 67.2878 48.6022 67.2131C48.5389 67.2883 48.5186 67.4075 48.5117 67.5023C48.4934 67.7517 48.5125 68.0078 48.5141 68.2579C48.5158 68.5371 48.5177 68.8165 48.5196 69.0959C48.5232 69.6497 48.527 70.2033 48.5305 70.7571C48.5379 71.8696 48.5403 72.982 48.5441 74.0944C48.5451 74.3655 48.5548 74.6382 48.541 74.9091C48.5348 75.0361 48.521 75.1644 48.4927 75.2887C48.4651 75.4098 48.4123 75.5212 48.3778 75.64C48.308 75.8815 48.4639 76.0912 48.5474 76.3075C48.6369 76.5382 48.6598 76.7919 48.6419 77.0373C48.6236 77.2919 48.5672 77.5421 48.5015 77.7881C48.4432 78.0071 48.3468 78.237 48.3397 78.4655C48.3363 78.5693 48.3589 78.6697 48.4408 78.7401C48.5241 78.8123 48.6388 78.856 48.7397 78.8975C48.9663 78.9908 49.2041 79.056 49.4433 79.1074C49.924 79.2107 50.4148 79.2576 50.8965 79.3558C51.3535 79.4489 51.7933 79.6022 52.2191 79.7916C53.0575 80.1648 53.8282 80.6687 54.6371 81.0985C54.9242 81.2508 55.2174 81.3943 55.5185 81.5178C55.547 81.5171 55.5753 81.529 55.597 81.5502C55.696 81.5892 55.7955 81.6266 55.8962 81.6604C56.0623 81.7163 56.2724 81.7744 56.4431 81.7035C56.6413 81.6209 56.6423 81.3508 56.7323 81.1837C56.8422 80.9792 57.0257 80.8276 57.1966 80.676C57.3675 80.5244 57.5369 80.3709 57.7045 80.2153C58.0382 79.9052 58.3642 79.5867 58.6781 79.2566C59.3036 78.5992 59.8836 77.8952 60.3679 77.1267C60.8463 76.3673 61.2264 75.5469 61.4537 74.677C61.488 74.5461 61.6908 74.6018 61.6565 74.7329C61.5991 74.9521 61.5334 75.1687 61.4578 75.3822C61.1491 76.2535 60.6957 77.0672 60.1568 77.8162C59.6435 78.53 59.0568 79.1878 58.4337 79.8071C58.5089 79.9299 58.5744 80.0563 58.6313 80.1888C58.8876 80.7872 59.0002 81.431 59.1677 82.0567C59.2515 82.3701 59.3503 82.6812 59.4914 82.9742Z" fill="#CBDBDC"/>
<path d="M37.9016 49.771C37.9875 49.8891 38.1289 49.9633 38.2607 50.0183C38.4235 50.0864 38.5958 50.1247 38.7653 50.1716C39.1763 50.2856 39.5761 50.4393 39.9638 50.6171C40.7469 50.976 41.4744 51.4432 42.1677 51.9518C42.515 52.2065 42.8515 52.4745 43.1899 52.7408C43.2099 52.7567 43.2311 52.7729 43.2525 52.7893C43.2689 52.7962 43.2832 52.807 43.2951 52.8203C43.4217 52.9112 43.5676 52.9907 43.7223 52.975C43.9223 52.9545 44.0834 52.7777 44.2243 52.6511C44.8669 52.0739 45.4633 51.4461 46.0071 50.7754C46.2768 50.4424 46.5331 50.0987 46.7756 49.7453C46.8961 49.5699 47.0132 49.3919 47.1267 49.2117C47.2424 49.0282 47.3492 48.8393 47.4701 48.6591C47.5406 48.5544 47.6941 48.6448 47.6386 48.7576C47.5891 48.859 47.5334 48.9556 47.4751 49.0523C47.0141 49.8158 46.4903 50.5412 45.9126 51.2207C45.6242 51.5601 45.3222 51.8876 45.0071 52.2022C44.9371 52.2722 44.8643 52.339 44.7931 52.4076C44.899 52.6989 45.0451 52.9628 45.231 53.212C45.4338 53.4841 45.6613 53.7387 45.8803 53.9979C46.3042 54.4998 46.7259 55.0037 47.1479 55.5073C47.5598 55.999 47.9818 56.4838 48.379 56.9877C48.7484 57.4563 49.0766 57.9527 49.2842 58.5154C49.4884 59.069 49.5955 59.6892 49.5441 60.2792C49.5383 60.3425 49.4888 60.3756 49.4396 60.378C49.5176 61.2481 49.4724 62.1335 49.3489 62.9972C49.2875 63.4268 49.2042 63.8533 49.0992 64.2745C48.9919 64.706 48.8527 65.1289 48.7506 65.5618C48.6554 65.965 48.578 66.4075 48.6489 66.8211C48.6585 66.8775 48.6749 66.9301 48.6975 66.9772C48.757 66.9832 48.7915 67.0424 48.7813 67.0898C48.8272 67.1291 48.886 67.1548 48.961 67.1607C49.144 67.1755 49.3251 67.106 49.4965 67.0515C50.338 66.7835 51.1943 66.5553 52.0671 66.4144C52.9358 66.2742 53.8154 66.2233 54.6932 66.2977C55.5688 66.372 56.4315 66.5517 57.2826 66.7659C58.9969 67.1971 60.691 67.7729 62.4646 67.9061C63.3259 67.9709 64.2094 67.9342 65.0457 67.7041C65.4022 67.606 65.7507 67.4463 65.9399 67.1117C66.0984 66.8313 66.1369 66.4472 66.0117 66.1459C65.9979 66.1126 66.0063 66.0859 66.0241 66.0671C66.0201 66.0407 66.0158 66.0145 66.012 65.9881C65.8064 64.5658 65.5914 63.1452 65.3546 61.7277C65.1181 60.3094 64.8572 58.8955 64.5723 57.486C64.2889 56.0835 63.9816 54.6855 63.6508 53.2934C63.3245 51.9202 63.0025 50.5371 62.5122 49.2112C62.2787 48.5801 62.0086 47.9627 61.7044 47.3625C61.4038 46.7701 61.063 46.2032 60.712 45.6398C60.6425 45.5287 60.8131 45.433 60.8855 45.5382C60.9788 45.6739 61.068 45.8112 61.1544 45.9511C61.6078 46.6849 62.0067 47.4522 62.3496 48.244C62.3504 48.2438 62.3508 48.2435 62.3515 48.2435C62.4884 48.2412 62.6252 48.2307 62.7604 48.2083C63.0206 48.165 63.2836 48.0896 63.5189 47.9691C63.6189 47.918 63.7179 47.8554 63.786 47.7642C63.8583 47.6669 63.8874 47.5436 63.9024 47.4253C63.9388 47.1373 63.9476 46.8434 63.9652 46.5535C63.9835 46.2529 63.9992 45.9518 64.0123 45.6508C64.038 45.0574 64.0537 44.4639 64.059 43.8701C64.064 43.2915 64.0766 42.7072 64.0221 42.1308C63.9961 41.8573 63.95 41.5855 63.8716 41.322C63.8072 41.1043 63.7329 40.8532 63.4866 40.7906C63.3561 40.7575 63.2164 40.7556 63.0829 40.7461C62.9337 40.7354 62.7845 40.7268 62.635 40.7196C62.3363 40.7058 62.0371 40.6982 61.738 40.6939C60.5508 40.677 59.3604 40.7097 58.178 40.5819C57.5927 40.5188 57.012 40.42 56.4311 40.3269C55.8763 40.2379 55.3194 40.1565 54.7679 40.049C54.7386 40.0523 54.7096 40.0563 54.6803 40.0585C54.6877 40.1637 54.6951 40.2691 54.7022 40.3745C54.7189 40.6152 54.7355 40.8558 54.7522 41.0966C54.7605 41.2147 54.7686 41.3327 54.7767 41.451C54.7841 41.5557 54.8079 41.6774 54.7579 41.7754C54.7125 41.8644 54.6187 41.9058 54.5252 41.9239C54.4076 41.9468 54.2872 41.9592 54.1674 41.9653C53.9309 41.9775 53.6938 41.9603 53.4592 41.9294C52.6659 41.8244 51.8705 41.6214 51.1272 41.3246C50.4135 41.0395 49.7349 40.6525 49.1759 40.1201C49.0385 39.9892 48.9091 39.8498 48.7894 39.7027C48.688 39.5782 48.5892 39.4518 48.558 39.3012C48.5492 39.304 48.5411 39.3078 48.5309 39.3086C48.3974 39.3181 48.2643 39.3309 48.1318 39.3495C47.0755 39.4963 46.0909 39.9257 45.2389 40.5621C44.4061 41.1842 43.7057 41.9639 43.0098 42.7305C42.302 43.5102 41.5951 44.2925 40.9449 45.1217C40.298 45.9466 39.7085 46.8227 39.2498 47.7675C39.0428 48.194 38.8859 48.6577 38.5951 49.0377C38.5263 49.1272 38.4521 49.212 38.3671 49.2867C38.2793 49.3638 38.1819 49.4247 38.0851 49.4895C38.0084 49.5404 37.9118 49.6056 37.8985 49.7049C37.8956 49.7256 37.8963 49.7475 37.9001 49.7689C37.9006 49.7696 37.9011 49.7703 37.9016 49.771Z" fill="#CBDBDC"/>
<path d="M75.8969 38.6881C75.8177 38.6067 75.7346 38.5291 75.6478 38.4556C75.5592 38.3806 75.4662 38.3013 75.3602 38.2514C75.2479 38.1985 75.1242 38.2111 75.0049 38.2269C74.8664 38.2452 74.7284 38.2661 74.5906 38.2875C74.0303 38.3744 73.4729 38.4798 72.9181 38.5965C71.8302 38.8254 70.7495 39.0913 69.6723 39.365C69.1673 39.4933 68.6636 39.632 68.1748 39.8136C67.6833 39.9959 67.228 40.2334 66.7839 40.5105C66.5597 40.6504 66.3332 40.7844 66.0894 40.8882C65.86 40.9857 65.6225 41.0619 65.3783 41.1124C64.938 41.2038 64.4822 41.218 64.0393 41.1416C64.1093 41.3413 64.154 41.5522 64.1873 41.7588C64.2338 42.0458 64.2549 42.3362 64.2645 42.6268C64.2842 43.231 64.2749 43.8372 64.263 44.4415C64.2506 45.0575 64.2273 45.6732 64.1928 46.2881C64.179 46.534 64.1624 46.7796 64.145 47.0252C64.2823 47.011 64.4192 47.0064 64.556 46.9833C64.6938 46.9598 64.8295 46.9253 64.9623 46.881C65.4552 46.7173 65.8962 46.4314 66.3203 46.1377C66.5347 45.9895 66.7468 45.8374 66.9658 45.6955C67.0764 45.6239 67.1888 45.5544 67.3035 45.4892C67.416 45.4249 67.5341 45.3611 67.6648 45.3469C67.6912 45.344 67.7107 45.3576 67.7224 45.3769C67.8747 45.3219 68.0272 45.2683 68.1779 45.2122C68.5332 45.0796 68.889 44.948 69.2434 44.8121C70.507 44.3277 71.7584 43.8115 72.9957 43.2636C73.6041 42.9945 74.2117 42.7217 74.8095 42.4295C75.1039 42.2855 75.3957 42.1353 75.6815 41.9749C75.9598 41.8185 76.2232 41.6379 76.4993 41.4791C76.5719 41.4156 76.6364 41.3444 76.6878 41.2621C76.9618 40.8251 76.8118 40.2689 76.6355 39.8236C76.4681 39.4021 76.213 39.0132 75.8969 38.6881Z" fill="#CBDBDC"/>
<path d="M88.7189 34.6899C88.6458 34.5928 88.4878 34.6473 88.395 34.6737C88.2546 34.714 88.1142 34.7544 87.9742 34.7961C87.6941 34.8791 87.4154 34.9665 87.1379 35.0576C86.576 35.2426 86.0226 35.4561 85.4559 35.6255C85.3979 35.6429 85.36 35.5548 85.4145 35.5272C86.0428 35.2083 86.7223 34.9822 87.3906 34.7637C87.5748 34.7035 87.7598 34.6454 87.9452 34.5888C88.0101 34.5369 88.0846 34.4964 88.1551 34.4527C88.2355 34.4029 88.316 34.3532 88.3964 34.3032C88.4728 34.2558 88.5618 34.2132 88.6297 34.1532C88.6735 34.1145 88.6906 34.0716 88.6639 34.0169C88.5978 33.8815 88.435 33.8926 88.3143 33.9336C88.1613 33.9855 88.0178 34.0745 87.8724 34.1452C87.568 34.2927 87.2574 34.4279 86.9425 34.5517C86.3113 34.7997 85.6637 34.9993 84.998 35.1298C84.9219 35.1448 84.8893 35.0331 84.9657 35.0124C85.3717 34.902 85.776 34.7804 86.1737 34.6426C86.5253 34.521 86.8725 34.3882 87.2133 34.2385C87.3871 34.1623 87.5594 34.0826 87.73 33.9995C87.8921 33.9207 88.0497 33.8281 88.217 33.761C88.2315 33.7553 88.2465 33.7501 88.2615 33.7451C88.2603 33.7379 88.2598 33.7308 88.2605 33.7232C88.2734 33.6063 88.1767 33.5237 88.0696 33.498C87.933 33.4654 87.7833 33.5314 87.6615 33.5866C86.5881 34.0726 85.4697 34.4707 84.3262 34.7568C84.2486 34.7761 84.2217 34.6666 84.2938 34.6392C84.6284 34.5121 84.9673 34.3996 85.306 34.2832C85.9081 34.0759 86.5091 33.8631 87.0941 33.6108C87.2414 33.5475 87.3871 33.4807 87.5325 33.4131C87.6144 33.3752 87.6972 33.3405 87.7829 33.3152C87.7672 33.2412 87.6948 33.1929 87.622 33.1736C87.5113 33.1444 87.3875 33.1924 87.2871 33.2362C87.0389 33.3448 86.7935 33.4547 86.5372 33.5442C86.0871 33.701 85.6247 33.8181 85.1625 33.9319C84.6784 34.0511 84.1974 34.178 83.7176 34.3127C83.264 34.4403 82.7758 34.5317 82.3972 34.828C82.1168 35.0474 81.8757 35.3142 81.6118 35.5529C81.6065 35.5682 81.5982 35.5829 81.5827 35.5962C81.2124 35.9178 80.8206 36.2248 80.3777 36.4407C79.9584 36.6451 79.5076 36.7303 79.0568 36.8357C78.5942 36.944 78.1353 37.0692 77.6819 37.2113C77.2247 37.3546 76.7789 37.5248 76.3296 37.6904C76.2208 37.7306 76.1097 37.767 75.995 37.7863C75.8802 37.8056 75.7667 37.8051 75.6511 37.8063C75.5071 37.8077 75.2743 37.8418 75.2319 38.0046C75.26 38.0065 75.2881 38.0088 75.3159 38.0146C75.4383 38.0391 75.5454 38.1074 75.6432 38.1819C75.7382 38.2542 75.83 38.3304 75.9174 38.4115C76.0935 38.575 76.2518 38.7564 76.3929 38.9506C76.6716 39.3336 76.8794 39.7753 76.9884 40.2365C77.0526 40.5086 77.0798 40.7984 77.0031 41.0707C76.971 41.185 76.9205 41.2935 76.8556 41.3925C77.0324 41.4239 77.2183 41.3611 77.3213 41.2073C77.3861 41.1107 77.451 41.0212 77.5598 40.9703C77.6762 40.9158 77.8002 40.8748 77.9194 40.8275C78.7884 40.4819 79.6416 40.104 80.4727 39.6751C81.3069 39.2445 82.1185 38.7697 82.9039 38.2561C82.9391 38.233 82.9724 38.2361 82.9998 38.2511C83.2216 38.1688 83.4491 38.1005 83.6745 38.0281C83.9461 37.9408 84.2186 37.8572 84.4908 37.7718C84.9561 37.6261 85.4217 37.4798 85.8762 37.3034C86.0983 37.2173 86.3175 37.124 86.5319 37.0204C86.6433 36.9666 86.7533 36.9102 86.8618 36.8507C86.9506 36.8022 87.047 36.7541 87.1122 36.6744C87.1586 36.6177 87.1931 36.5242 87.1519 36.4554C87.1058 36.3783 86.9825 36.3928 86.9082 36.4031C86.6662 36.4366 86.4251 36.4876 86.1866 36.5409C85.6968 36.6501 85.2129 36.7922 84.7405 36.9607C84.6558 36.9909 84.6058 36.9093 84.6203 36.84C84.6032 36.7974 84.6082 36.7444 84.6558 36.7113C85.1589 36.3609 85.6975 36.0644 86.2663 35.8347C86.5186 35.7329 86.7764 35.645 87.0386 35.5727C87.2621 35.5113 87.4885 35.4608 87.7112 35.3961C87.9254 35.334 88.1372 35.2595 88.3291 35.1436C88.424 35.0862 88.5119 35.0198 88.5902 34.941C88.6416 34.8894 88.7787 34.7692 88.7189 34.6899Z" fill="#CBDBDC"/>
<path d="M80.4475 98.4742C80.4575 98.3102 80.4784 98.1431 80.4761 97.9786C80.6346 97.9751 80.7726 97.8358 80.8907 97.7466C81.0504 97.6256 81.2096 97.504 81.3688 97.3827C81.6903 97.1373 82.0116 96.8916 82.3325 96.6454C82.4774 96.534 82.6378 96.4297 82.7651 96.2977C82.8035 96.2577 82.8346 96.215 82.8613 96.1706C82.9151 96.1987 82.9679 96.2265 83.026 96.2486C83.096 96.2753 83.1664 96.3 83.2369 96.3253C83.3813 96.3769 83.5253 96.43 83.6688 96.4845C83.9342 96.5851 84.1986 96.6893 84.4571 96.807C84.4157 97.282 84.3938 97.7592 84.3835 98.2359C84.3783 98.4841 84.3762 98.7323 84.3807 98.9807C84.3828 99.1049 84.385 99.2291 84.3909 99.3533C84.3938 99.4173 84.3964 99.4816 84.4009 99.5456C84.404 99.5882 84.4112 99.6265 84.4202 99.6651C84.355 99.6994 84.2976 99.7646 84.2443 99.81C84.1736 99.8703 84.1025 99.9302 84.0313 99.99C83.8859 100.112 83.7393 100.232 83.5915 100.351C83.338 100.555 83.0772 100.751 82.8282 100.96C82.7532 100.914 82.6559 100.887 82.5788 100.856C82.4743 100.814 82.3698 100.772 82.2656 100.73C82.0566 100.646 81.8479 100.561 81.6389 100.477C81.4302 100.393 81.2212 100.309 81.012 100.226C80.8169 100.148 80.6224 100.064 80.423 99.9975C80.4147 99.673 80.4135 99.3481 80.4228 99.0234C80.428 98.8402 80.4363 98.6569 80.4475 98.4742Z" fill="#CBDBDC"/>
<path d="M83.7081 100.494C83.8538 100.378 83.9985 100.261 84.142 100.143C84.2136 100.084 84.285 100.024 84.356 99.9643C84.3933 99.9327 84.4386 99.901 84.4788 99.8653C84.5242 99.9209 84.609 99.9512 84.6694 99.9809C84.7606 100.025 84.8524 100.069 84.9448 100.11C85.1299 100.193 85.3173 100.272 85.5069 100.344C85.8858 100.489 86.2723 100.614 86.6643 100.718C86.7769 100.748 86.89 100.777 87.0032 100.803C87.102 100.826 87.2044 100.854 87.306 100.867C87.3015 100.938 87.3143 101.011 87.3248 101.08C87.3367 101.16 87.3507 101.239 87.3638 101.319C87.3905 101.482 87.4171 101.644 87.4438 101.807C87.4959 102.126 87.554 102.443 87.6092 102.761C87.3429 102.831 87.1399 103.058 86.9359 103.235C86.676 103.461 86.4156 103.686 86.1564 103.913C86.0117 104.039 85.8673 104.166 85.7228 104.292C85.6033 104.397 85.4789 104.5 85.3698 104.616C85.3287 104.59 85.277 104.581 85.2306 104.567C85.1861 104.555 85.1418 104.542 85.0973 104.529C85.0052 104.502 84.9131 104.475 84.8213 104.446C84.6342 104.387 84.4483 104.324 84.2636 104.258C84.0827 104.193 83.9031 104.124 83.7246 104.052C83.6317 104.015 83.5396 103.976 83.447 103.939C83.4075 103.923 83.3609 103.898 83.3133 103.88C83.315 103.857 83.3085 103.833 83.2933 103.816C83.2074 103.36 83.135 102.902 83.0779 102.442C83.0489 102.207 83.0232 101.973 82.9996 101.738C82.9879 101.62 82.9775 101.502 82.967 101.385C82.9577 101.282 82.9561 101.174 82.9277 101.074C83.1983 100.896 83.4544 100.695 83.7081 100.494Z" fill="#CBDBDC"/>
<path d="M84.5466 99.6718C84.5538 99.6328 84.5595 99.5942 84.56 99.5513C84.5607 99.4874 84.56 99.4236 84.5602 99.3595C84.5607 99.2393 84.5595 99.1194 84.56 98.9995C84.5609 98.7471 84.5633 98.4949 84.5697 98.2429C84.5823 97.7571 84.613 97.2727 84.6504 96.7884C84.7446 96.7675 84.8384 96.7267 84.9281 96.6963C85.0386 96.6587 85.149 96.6218 85.2599 96.5856C85.4744 96.5157 85.69 96.45 85.9051 96.3831C86.334 96.2498 86.7665 96.1279 87.201 96.0144C87.2406 96.0696 87.2879 96.1198 87.3315 96.1711C87.3976 96.2486 87.4626 96.327 87.5269 96.4059C87.6509 96.5585 87.7713 96.7137 87.8884 96.8717C88.1245 97.1897 88.3461 97.5193 88.5541 97.8563C88.6659 98.0372 88.7728 98.2209 88.8756 98.4071C88.6364 98.8076 88.388 99.2024 88.1304 99.5916C87.9972 99.7929 87.8613 99.9926 87.723 100.191C87.6071 100.356 87.4816 100.519 87.3753 100.692C87.2848 100.662 87.1868 100.649 87.0939 100.628C86.9952 100.605 86.8964 100.581 86.7981 100.556C86.6051 100.507 86.4135 100.454 86.2233 100.395C85.8428 100.277 85.4691 100.139 85.1019 99.985C85.0015 99.9431 84.9017 99.8996 84.8022 99.8553C84.7511 99.8326 84.7001 99.8087 84.6485 99.7867C84.6221 99.7753 84.5938 99.7624 84.5647 99.7553C84.565 99.7548 84.5654 99.7544 84.5657 99.7536C84.578 99.7232 84.5676 99.6927 84.5466 99.6718Z" fill="#CBDBDC"/>
<path d="M87.6201 101.766C87.5899 101.608 87.5599 101.45 87.5296 101.292C87.5147 101.213 87.5001 101.134 87.4844 101.055C87.4709 100.986 87.4573 100.915 87.4297 100.849C87.5891 100.683 87.7217 100.488 87.8555 100.302C87.9987 100.103 88.1392 99.9014 88.2772 99.6984C88.5454 99.3038 88.8018 98.9009 89.0488 98.4928C89.2406 98.5789 89.4391 98.6479 89.6393 98.7131C89.8728 98.7893 90.1089 98.859 90.3473 98.9178C90.359 98.9873 90.3737 99.0563 90.3878 99.1256C90.4118 99.2431 90.4363 99.3609 90.458 99.4793C90.5008 99.7118 90.5368 99.946 90.567 100.18C90.6279 100.654 90.6593 101.131 90.6624 101.608C90.6629 101.674 90.6627 101.74 90.6624 101.806C90.6622 101.827 90.6608 101.851 90.6603 101.875C90.6103 101.912 90.5708 101.963 90.5292 102.009C90.4835 102.06 90.4378 102.112 90.3925 102.164C90.3 102.27 90.2086 102.377 90.1184 102.485C90.0306 102.591 89.9439 102.697 89.8585 102.804C89.8156 102.858 89.774 102.913 89.7326 102.968C89.7097 102.998 89.6843 103.028 89.6643 103.06C89.6014 103.045 89.5365 103.036 89.4732 103.025L89.2114 102.978C89.0448 102.947 88.8784 102.917 88.7118 102.887C88.5373 102.855 88.3629 102.824 88.1884 102.792C88.0587 102.768 87.9264 102.741 87.7938 102.74C87.7936 102.736 87.795 102.732 87.7941 102.727C87.7365 102.407 87.681 102.086 87.6201 101.766Z" fill="#CBDBDC"/>
<path d="M89.8309 103.29C89.8276 103.245 89.8269 103.193 89.7917 103.16C89.7912 103.16 89.7905 103.16 89.7898 103.159C89.7898 103.155 89.7888 103.152 89.7883 103.148C89.8076 103.127 89.825 103.103 89.844 103.079C89.8869 103.025 89.9302 102.971 89.973 102.918C90.0589 102.81 90.1451 102.703 90.2329 102.597C90.3191 102.494 90.4064 102.392 90.4947 102.29C90.5399 102.238 90.5854 102.187 90.6313 102.136C90.6601 102.103 90.6937 102.071 90.7234 102.036C90.777 102.076 90.8524 102.077 90.9084 102.034C90.6518 102.718 90.2734 103.342 89.7981 103.876C89.8062 103.818 89.8131 103.76 89.8183 103.701C89.8262 103.612 89.8307 103.523 89.8326 103.433C89.8333 103.385 89.8343 103.337 89.8309 103.29Z" fill="#CBDBDC"/>
<path d="M90.8396 101.897C90.8399 101.884 90.8403 101.868 90.8403 101.87C90.8408 101.816 90.8408 101.762 90.8401 101.707C90.8389 101.599 90.836 101.49 90.8318 101.382C90.8234 101.169 90.8094 100.956 90.7899 100.743C90.7499 100.312 90.688 99.8822 90.6004 99.4576C90.5759 99.3398 90.5507 99.2222 90.5219 99.1058C90.5017 99.0239 90.4802 98.9416 90.4521 98.8618C90.4574 98.8469 90.4576 98.8311 90.4543 98.8162C90.5009 98.7427 90.5309 98.655 90.5623 98.5765C90.6064 98.4651 90.6492 98.3532 90.6897 98.2404C90.7287 98.1314 90.7663 98.0217 90.8022 97.9115C90.8184 97.8625 90.8341 97.8132 90.8496 97.764C91.1538 98.5115 91.3099 99.3328 91.2782 100.19C91.2556 100.806 91.1383 101.395 90.9417 101.947C90.9284 101.907 90.8858 101.878 90.8396 101.897Z" fill="#CBDBDC"/>
<path d="M90.7623 97.5596C90.734 97.6017 90.723 97.6494 90.7073 97.6993C90.6911 97.7509 90.6747 97.8026 90.6578 97.8537C90.6217 97.9639 90.584 98.0736 90.545 98.1826C90.506 98.2916 90.4662 98.4006 90.4248 98.5087C90.3958 98.5846 90.3551 98.6646 90.3342 98.7459C90.1202 98.6926 89.9072 98.6362 89.6963 98.5715C89.4876 98.5075 89.282 98.4337 89.0732 98.3694C89.0654 98.3542 89.0549 98.3404 89.0409 98.3306C88.6546 97.6357 88.2062 96.9774 87.7007 96.3636C87.629 96.2767 87.5562 96.1906 87.4824 96.1053C87.4244 96.0385 87.367 95.9654 87.2992 95.9068C87.2985 95.898 87.2963 95.8895 87.2937 95.8809C87.3468 95.7715 87.3796 95.6525 87.4189 95.5375C87.4415 95.472 87.4651 95.4068 87.4893 95.3421C87.5015 95.3095 87.5141 95.2773 87.5267 95.245C87.5312 95.2333 87.5357 95.2226 87.5396 95.2124C87.5607 95.2138 87.5822 95.2148 87.605 95.2122C87.7126 95.1995 87.8194 95.1669 87.9251 95.1429C88.1303 95.0958 88.3352 95.0489 88.5403 95.0017C89.5109 95.6177 90.287 96.5081 90.7623 97.5596Z" fill="#CBDBDC"/>
<path d="M87.4892 95.0222C87.4492 95.001 87.4171 94.9627 87.3859 94.9311C87.2346 94.7771 87.0837 94.6231 86.9323 94.4691C86.8562 94.3913 86.7795 94.3139 86.7026 94.2366C87.2748 94.3665 87.8143 94.5795 88.3087 94.862C88.182 94.8927 88.0554 94.9234 87.9288 94.9539C87.8298 94.9779 87.731 95.0039 87.6316 95.026C87.5828 95.0367 87.5352 95.0465 87.4892 95.0222Z" fill="#CBDBDC"/>
<path d="M86.4363 94.1823C86.4823 94.2456 86.5427 94.3011 86.5953 94.3568C86.6779 94.4439 86.7605 94.5305 86.8435 94.6171C86.9999 94.7804 87.1503 94.9549 87.316 95.1088C87.341 95.1322 87.3669 95.1505 87.3936 95.1664C87.3905 95.175 87.3876 95.1836 87.3843 95.1924C87.3712 95.2272 87.3586 95.2619 87.346 95.2966C87.3226 95.3619 87.3 95.4273 87.2786 95.4932C87.2441 95.5994 87.2072 95.7083 87.1925 95.8195C87.1901 95.82 87.1882 95.82 87.1858 95.8205C86.7372 95.9349 86.2921 96.0625 85.8501 96.201C85.6309 96.2698 85.4139 96.3455 85.1973 96.4219C85.0871 96.4609 84.9772 96.5006 84.8677 96.5409C84.7756 96.5747 84.6732 96.6042 84.5861 96.6523C84.5666 96.648 84.5457 96.6487 84.5266 96.6552C84.2589 96.5535 83.9933 96.4464 83.725 96.3458C83.5851 96.2934 83.4447 96.242 83.3038 96.1922C83.2333 96.1673 83.1626 96.143 83.0915 96.1201C83.0301 96.1003 82.9701 96.0894 82.9089 96.0785C82.9425 95.9999 82.9651 95.9161 82.983 95.8281C83.0736 95.3835 83.1657 94.9394 83.2548 94.4943C83.9842 94.2078 84.7825 94.0624 85.6143 94.0931C85.8942 94.1033 86.1681 94.1345 86.4363 94.1823Z" fill="#CBDBDC"/>
<path d="M83.0489 94.5786C82.9834 94.9068 82.9192 95.2354 82.8544 95.5639C82.8216 95.7298 82.8052 95.9264 82.7157 96.0737C82.6293 96.2162 82.4739 96.3129 82.3444 96.4124C82.0464 96.6418 81.7485 96.8717 81.4512 97.1023C81.2993 97.2199 81.1475 97.3377 80.9957 97.4555C80.9197 97.5143 80.844 97.5733 80.7684 97.6323C80.6998 97.6862 80.6325 97.7483 80.5568 97.7918C80.4233 97.8685 80.339 97.7835 80.254 97.6837C80.1955 97.615 80.137 97.5417 80.0608 97.4948C80.6679 96.1922 81.737 95.1522 83.0489 94.5786Z" fill="#CBDBDC"/>
<path d="M80.0086 97.6137C80.1228 97.7193 80.1983 97.8784 80.3346 97.9469C80.3006 98.1092 80.2935 98.2792 80.282 98.4439C80.269 98.631 80.2592 98.8181 80.2523 99.0051C80.2387 99.3757 80.238 99.7465 80.249 100.117C80.2492 100.121 80.2509 100.124 80.2516 100.128C80.2366 100.166 80.2242 100.206 80.2106 100.242C80.1838 100.316 80.1566 100.389 80.1309 100.463C80.0793 100.611 80.0317 100.76 79.985 100.909C79.9396 101.055 79.8958 101.201 79.8541 101.348C79.8327 101.423 79.8118 101.499 79.7913 101.575C79.7834 101.603 79.7725 101.634 79.763 101.666C79.5811 101.063 79.4926 100.421 79.5169 99.7569C79.545 98.9949 79.7192 98.2728 80.0086 97.6137Z" fill="#CBDBDC"/>
<path d="M79.8293 101.873C79.8472 101.873 79.865 101.867 79.8791 101.852C79.9317 101.795 79.9393 101.712 79.9586 101.64C79.9786 101.564 79.999 101.488 80.0202 101.413C80.0623 101.262 80.1064 101.112 80.1523 100.962C80.1971 100.816 80.2444 100.671 80.2923 100.526C80.3168 100.452 80.341 100.377 80.366 100.303C80.3803 100.261 80.3977 100.217 80.4113 100.173C80.5829 100.252 80.7602 100.32 80.9349 100.391C81.1431 100.477 81.3516 100.562 81.5603 100.647C81.769 100.732 81.9775 100.816 82.1863 100.901C82.2907 100.943 82.395 100.986 82.4992 101.028L82.6446 101.087C82.6615 101.094 82.6784 101.101 82.6956 101.108C82.7001 101.149 82.7415 101.186 82.7848 101.165C82.7827 101.244 82.7913 101.325 82.7958 101.402C82.8024 101.52 82.8115 101.638 82.821 101.755C82.8405 101.995 82.865 102.234 82.8941 102.473C82.9495 102.93 83.0202 103.385 83.104 103.837C82.9895 103.878 82.8762 103.924 82.761 103.964C82.6023 104.018 82.4426 104.07 82.2812 104.116C82.1234 104.161 81.9642 104.2 81.8038 104.235C81.7236 104.253 81.6431 104.269 81.5625 104.284C81.5213 104.292 81.4685 104.294 81.422 104.307C80.7035 103.646 80.1506 102.811 79.8293 101.873Z" fill="#CBDBDC"/>
<path d="M81.6084 104.47C81.6848 104.456 81.7612 104.441 81.8371 104.425C82.0011 104.389 82.1637 104.347 82.325 104.301C82.4864 104.254 82.6463 104.203 82.8034 104.144C82.9272 104.097 83.0526 104.05 83.1725 103.993C83.2261 104.042 83.3127 104.069 83.3732 104.097C83.4641 104.139 83.5562 104.178 83.6485 104.217C83.8335 104.294 84.0198 104.366 84.2081 104.434C84.3961 104.502 84.5858 104.567 84.7764 104.626C84.8719 104.657 84.9675 104.686 85.0637 104.714C85.1406 104.736 85.2255 104.77 85.3079 104.774C85.3257 104.789 85.3505 104.795 85.3719 104.783C85.3757 104.78 85.3795 104.778 85.3833 104.775C85.399 104.811 85.4204 104.845 85.4395 104.878C85.4692 104.93 85.4988 104.982 85.5283 105.034C85.5859 105.135 85.6437 105.236 85.7003 105.337C85.7567 105.439 85.8131 105.541 85.8686 105.643C85.8972 105.696 85.9255 105.748 85.9536 105.801C85.9586 105.811 85.9631 105.82 85.9676 105.829C85.7096 105.854 85.4471 105.864 85.181 105.854C83.817 105.804 82.5782 105.29 81.6084 104.47Z" fill="#CBDBDC"/>
<path d="M86.1602 105.808C86.1476 105.776 86.1292 105.746 86.1128 105.716C86.0845 105.663 86.0559 105.61 86.0271 105.558C85.9695 105.452 85.911 105.348 85.851 105.244C85.791 105.14 85.7308 105.036 85.6678 104.934C85.6197 104.856 85.5726 104.761 85.5083 104.69C85.5973 104.624 85.6816 104.551 85.7653 104.479C85.8936 104.371 86.0217 104.262 86.1499 104.153C86.4063 103.935 86.6614 103.716 86.9168 103.497C87.0415 103.39 87.1662 103.283 87.2909 103.176C87.3949 103.087 87.5004 102.982 87.6363 102.945C87.7826 102.906 87.9385 102.937 88.0842 102.963C88.2508 102.993 88.4174 103.023 88.584 103.053C88.7663 103.086 88.9488 103.119 89.1311 103.152L89.4167 103.204C89.5031 103.219 89.5905 103.24 89.6785 103.246C89.6769 103.258 89.6759 103.271 89.675 103.284C89.6716 103.332 89.6712 103.379 89.6685 103.427C89.664 103.516 89.6562 103.606 89.6455 103.695C89.635 103.782 89.6212 103.868 89.6062 103.955C89.6007 103.987 89.5869 104.047 89.5905 104.098C88.6882 105.015 87.4901 105.634 86.1602 105.808Z" fill="#CBDBDC"/>
</svg>
